{
    "Items": [
        {
            "bombValue": 0,
            "currency": 0,
            "powerup": 0,
            "cellType": 0
        },
        {
            "bombValue": 0,
            "currency": 0,
            "powerup": 0,
            "cellType": 0
        },
        {
            "bombValue": 0,
            "currency": 0,
            "powerup": 0,
            "cellType": 0
        },
        {
            "bombValue": 0,
            "currency": 0,
            "powerup": 0,
            "cellType": 0
        },
        {
            "bombValue": 0,
            "currency": 0,
            "powerup": 0,
            "cellType": 0
        },
        {
            "bombValue": 0,
            "currency": 0,
            "powerup": 0,
            "cellType": 0
        },
        {
            "bombValue": 0,
            "currency": 0,
            "powerup": 0,
            "cellType": 0
        },
        {
            "bombValue": 0,
            "currency": 0,
            "powerup": 0,
            "cellType": 0
        },
        {
            "bombValue": 0,
            "currency": 0,
            "powerup": 0,
            "cellType": 0
        },
        {
            "bombValue": 0,
            "currency": 0,
            "powerup": 0,
            "cellType": 0
        },
        {
            "bombValue": 0,
            "currency": 0,
            "powerup": 0,
            "cellType": 0
        },
        {
            "bombValue": 0,
            "currency": 0,
            "powerup": 0,
            "cellType": 0
        },
        {
            "bombValue": 0,
            "currency": 0,
            "powerup": 0,
            "cellType": 0
        },
        {
            "bombValue": 0,
            "currency": 0,
            "powerup": 0,
            "cellType": 0
        },
        {
            "bombValue": 0,
            "currency": 0,
            "powerup": 0,
            "cellType": 0
        },
        {
            "bombValue": 0,
            "currency": 0,
            "powerup": 0,
            "cellType": 0
        },
        {
            "bombValue": 0,
            "currency": 0,
            "powerup": 0,
            "cellType": 0
        },
        {
            "bombValue": 0,
            "currency": 0,
            "powerup": 0,
            "cellType": 0
        },
        {
            "bombValue": 0,
            "currency": 0,
            "powerup": 0,
            "cellType": 0
        },
        {
            "bombValue": 1,
            "currency": 0,
            "powerup": 0,
            "cellType": 1
        },
        {
            "bombValue": 1,
            "currency": 0,
            "powerup": 0,
            "cellType": 1
        },
        {
            "bombValue": 0,
            "currency": 0,
            "powerup": 0,
            "cellType": 0
        },
        {
            "bombValue": 0,
            "currency": 0,
            "powerup": 0,
            "cellType": 0
        },
        {
            "bombValue": 1,
            "currency": 0,
            "powerup": 0,
            "cellType": 7
        },
        {
            "bombValue": 0,
            "currency": 0,
            "powerup": 0,
            "cellType": 0
        },
        {
            "bombValue": 1,
            "currency": 0,
            "powerup": 0,
            "cellType": 1
        },
        {
            "bombValue": 1,
            "currency": 0,
            "powerup": 0,
            "cellType": 1
        },
        {
            "bombValue": 1,
            "currency": 0,
            "powerup": 0,
            "cellType": 1
        },
        {
            "bombValue": 0,
            "currency": 0,
            "powerup": 0,
            "cellType": 0
        },
        {
            "bombValue": 0,
            "currency": 0,
            "powerup": 0,
            "cellType": 0
        },
        {
            "bombValue": 0,
            "currency": 0,
            "powerup": 0,
            "cellType": 0
        },
        {
            "bombValue": 1,
            "currency": 0,
            "powerup": 0,
            "cellType": 1
        },
        {
            "bombValue": 0,
            "currency": 0,
            "powerup": 0,
            "cellType": 4
        },
        {
            "bombValue": 0,
            "currency": 0,
            "powerup": 0,
            "cellType": 4
        },
        {
            "bombValue": 1,
            "currency": 0,
            "powerup": 0,
            "cellType": 7
        },
        {
            "bombValue": 2,
            "currency": 0,
            "powerup": 0,
            "cellType": 1
        },
        {
            "bombValue": 2,
            "currency": 0,
            "powerup": 0,
            "cellType": 1
        },
        {
            "bombValue": 2,
            "currency": 0,
            "powerup": 0,
            "cellType": 1
        },
        {
            "bombValue": 2,
            "currency": 0,
            "powerup": 0,
            "cellType": 1
        },
        {
            "bombValue": 2,
            "currency": 0,
            "powerup": 0,
            "cellType": 1
        },
        {
            "bombValue": 2,
            "currency": 0,
            "powerup": 0,
            "cellType": 1
        },
        {
            "bombValue": 0,
            "currency": 0,
            "powerup": 0,
            "cellType": 0
        },
        {
            "bombValue": 3,
            "currency": 0,
            "powerup": 0,
            "cellType": 1
        },
        {
            "bombValue": 3,
            "currency": 0,
            "powerup": 0,
            "cellType": 1
        },
        {
            "bombValue": 3,
            "currency": 0,
            "powerup": 0,
            "cellType": 1
        },
        {
            "bombValue": 3,
            "currency": 0,
            "powerup": 0,
            "cellType": 1
        },
        {
            "bombValue": 3,
            "currency": 0,
            "powerup": 0,
            "cellType": 1
        },
        {
            "bombValue": 3,
            "currency": 0,
            "powerup": 0,
            "cellType": 1
        },
        {
            "bombValue": 0,
            "currency": 0,
            "powerup": 0,
            "cellType": 0
        },
        {
            "bombValue": 4,
            "currency": 0,
            "powerup": 0,
            "cellType": 1
        },
        {
            "bombValue": 4,
            "currency": 0,
            "powerup": 0,
            "cellType": 1
        },
        {
            "bombValue": 0,
            "currency": 0,
            "powerup": 0,
            "cellType": 4
        },
        {
            "bombValue": 0,
            "currency": 0,
            "powerup": 0,
            "cellType": 4
        },
        {
            "bombValue": 0,
            "currency": 0,
            "powerup": 0,
            "cellType": 4
        },
        {
            "bombValue": 4,
            "currency": 0,
            "powerup": 0,
            "cellType": 1
        },
        {
            "bombValue": 0,
            "currency": 0,
            "powerup": 0,
            "cellType": 0
        },
        {
            "bombValue": 5,
            "currency": 0,
            "powerup": 0,
            "cellType": 1
        },
        {
            "bombValue": 5,
            "currency": 0,
            "powerup": 0,
            "cellType": 1
        },
        {
            "bombValue": 5,
            "currency": 0,
            "powerup": 0,
            "cellType": 1
        },
        {
            "bombValue": 0,
            "currency": 0,
            "powerup": 0,
            "cellType": 4
        },
        {
            "bombValue": 5,
            "currency": 0,
            "powerup": 0,
            "cellType": 1
        },
        {
            "bombValue": 5,
            "currency": 0,
            "powerup": 0,
            "cellType": 1
        },
        {
            "bombValue": 0,
            "currency": 0,
            "powerup": 0,
            "cellType": 0
        },
        {
            "bombValue": 6,
            "currency": 0,
            "powerup": 0,
            "cellType": 1
        },
        {
            "bombValue": 6,
            "currency": 0,
            "powerup": 0,
            "cellType": 1
        },
        {
            "bombValue": 6,
            "currency": 0,
            "powerup": 0,
            "cellType": 1
        },
        {
            "bombValue": 6,
            "currency": 0,
            "powerup": 0,
            "cellType": 1
        },
        {
            "bombValue": 6,
            "currency": 0,
            "powerup": 0,
            "cellType": 1
        },
        {
            "bombValue": 6,
            "currency": 0,
            "powerup": 0,
            "cellType": 1
        },
        {
            "bombValue": 1,
            "currency": 0,
            "powerup": 0,
            "cellType": 5
        },
        {
            "bombValue": 0,
            "currency": 0,
            "powerup": 0,
            "cellType": 0
        },
        {
            "bombValue": 0,
            "currency": 0,
            "powerup": 0,
            "cellType": 0
        },
        {
            "bombValue": 0,
            "currency": 0,
            "powerup": 0,
            "cellType": 0
        },
        {
            "bombValue": 0,
            "currency": 0,
            "powerup": 0,
            "cellType": 0
        },
        {
            "bombValue": 0,
            "currency": 0,
            "powerup": 0,
            "cellType": 0
        },
        {
            "bombValue": 0,
            "currency": 0,
            "powerup": 0,
            "cellType": 0
        },
        {
            "bombValue": 0,
            "currency": 0,
            "powerup": 0,
            "cellType": 0
        },
        {
            "bombValue": 10,
            "currency": 0,
            "powerup": 0,
            "cellType": 1
        },
        {
            "bombValue": 0,
            "currency": 0,
            "powerup": 0,
            "cellType": 4
        },
        {
            "bombValue": 10,
            "currency": 0,
            "powerup": 0,
            "cellType": 1
        },
        {
            "bombValue": 0,
            "currency": 0,
            "powerup": 0,
            "cellType": 0
        },
        {
            "bombValue": 0,
            "currency": 0,
            "powerup": 0,
            "cellType": 0
        },
        {
            "bombValue": 0,
            "currency": 0,
            "powerup": 0,
            "cellType": 0
        },
        {
            "bombValue": 0,
            "currency": 0,
            "powerup": 0,
            "cellType": 0
        },
        {
            "bombValue": 10,
            "currency": 0,
            "powerup": 0,
            "cellType": 1
        },
        {
            "bombValue": 0,
            "currency": 0,
            "powerup": 0,
            "cellType": 4
        },
        {
            "bombValue": 10,
            "currency": 0,
            "powerup": 0,
            "cellType": 1
        },
        {
            "bombValue": 0,
            "currency": 0,
            "powerup": 0,
            "cellType": 0
        },
        {
            "bombValue": 0,
            "currency": 0,
            "powerup": 0,
            "cellType": 0
        },
        {
            "bombValue": 0,
            "currency": 0,
            "powerup": 0,
            "cellType": 0
        },
        {
            "bombValue": 0,
            "currency": 0,
            "powerup": 0,
            "cellType": 0
        },
        {
            "bombValue": 10,
            "currency": 0,
            "powerup": 0,
            "cellType": 1
        },
        {
            "bombValue": 0,
            "currency": 0,
            "powerup": 0,
            "cellType": 4
        },
        {
            "bombValue": 10,
            "currency": 0,
            "powerup": 0,
            "cellType": 1
        },
        {
            "bombValue": 0,
            "currency": 0,
            "powerup": 0,
            "cellType": 0
        },
        {
            "bombValue": 0,
            "currency": 0,
            "powerup": 0,
            "cellType": 0
        },
        {
            "bombValue": 0,
            "currency": 0,
            "powerup": 0,
            "cellType": 0
        },
        {
            "bombValue": 0,
            "currency": 0,
            "powerup": 0,
            "cellType": 0
        },
        {
            "bombValue": 10,
            "currency": 0,
            "powerup": 0,
            "cellType": 1
        },
        {
            "bombValue": 15,
            "currency": 0,
            "powerup": 0,
            "cellType": 5
        },
        {
            "bombValue": 10,
            "currency": 0,
            "powerup": 0,
            "cellType": 1
        },
        {
            "bombValue": 0,
            "currency": 0,
            "powerup": 0,
            "cellType": 0
        },
        {
            "bombValue": 5,
            "currency": 0,
            "powerup": 0,
            "cellType": 7
        },
        {
            "bombValue": 5,
            "currency": 0,
            "powerup": 0,
            "cellType": 7
        },
        {
            "bombValue": 0,
            "currency": 0,
            "powerup": 0,
            "cellType": 0
        },
        {
            "bombValue": 0,
            "currency": 0,
            "powerup": 0,
            "cellType": 0
        },
        {
            "bombValue": 10,
            "currency": 0,
            "powerup": 0,
            "cellType": 1
        },
        {
            "bombValue": 0,
            "currency": 0,
            "powerup": 0,
            "cellType": 0
        },
        {
            "bombValue": 0,
            "currency": 0,
            "powerup": 0,
            "cellType": 0
        },
        {
            "bombValue": 0,
            "currency": 0,
            "powerup": 0,
            "cellType": 0
        },
        {
            "bombValue": 0,
            "currency": 0,
            "powerup": 0,
            "cellType": 0
        },
        {
            "bombValue": 0,
            "currency": 0,
            "powerup": 0,
            "cellType": 0
        },
        {
            "bombValue": 20,
            "currency": 0,
            "powerup": 0,
            "cellType": 7
        },
        {
            "bombValue": 0,
            "currency": 0,
            "powerup": 0,
            "cellType": 0
        },
        {
            "bombValue": 0,
            "currency": 0,
            "powerup": 0,
            "cellType": 0
        },
        {
            "bombValue": 0,
            "currency": 0,
            "powerup": 0,
            "cellType": 0
        },
        {
            "bombValue": 0,
            "currency": 0,
            "powerup": 0,
            "cellType": 0
        },
        {
            "bombValue": 0,
            "currency": 0,
            "powerup": 0,
            "cellType": 0
        },
        {
            "bombValue": 5,
            "currency": 0,
            "powerup": 0,
            "cellType": 7
        },
        {
            "bombValue": 0,
            "currency": 0,
            "powerup": 0,
            "cellType": 0
        },
        {
            "bombValue": 15,
            "currency": 0,
            "powerup": 0,
            "cellType": 1
        },
        {
            "bombValue": 0,
            "currency": 0,
            "powerup": 0,
            "cellType": 0
        },
        {
            "bombValue": 0,
            "currency": 0,
            "powerup": 0,
            "cellType": 0
        },
        {
            "bombValue": 0,
            "currency": 0,
            "powerup": 0,
            "cellType": 0
        },
        {
            "bombValue": 0,
            "currency": 0,
            "powerup": 0,
            "cellType": 0
        },
        {
            "bombValue": 0,
            "currency": 0,
            "powerup": 0,
            "cellType": 0
        },
        {
            "bombValue": 0,
            "currency": 0,
            "powerup": 0,
            "cellType": 0
        },
        {
            "bombValue": 15,
            "currency": 0,
            "powerup": 0,
            "cellType": 1
        },
        {
            "bombValue": 15,
            "currency": 0,
            "powerup": 0,
            "cellType": 1
        },
        {
            "bombValue": 15,
            "currency": 0,
            "powerup": 0,
            "cellType": 1
        },
        {
            "bombValue": 15,
            "currency": 0,
            "powerup": 0,
            "cellType": 1
        },
        {
            "bombValue": 15,
            "currency": 0,
            "powerup": 0,
            "cellType": 1
        },
        {
            "bombValue": 15,
            "currency": 0,
            "powerup": 0,
            "cellType": 1
        },
        {
            "bombValue": 0,
            "currency": 0,
            "powerup": 0,
            "cellType": 0
        },
        {
            "bombValue": 0,
            "currency": 0,
            "powerup": 0,
            "cellType": 0
        },
        {
            "bombValue": 0,
            "currency": 0,
            "powerup": 0,
            "cellType": 0
        },
        {
            "bombValue": 0,
            "currency": 0,
            "powerup": 0,
            "cellType": 0
        },
        {
            "bombValue": 0,
            "currency": 0,
            "powerup": 0,
            "cellType": 0
        },
        {
            "bombValue": 0,
            "currency": 0,
            "powerup": 0,
            "cellType": 0
        },
        {
            "bombValue": 1,
            "currency": 0,
            "powerup": 0,
            "cellType": 5
        },
        {
            "bombValue": 15,
            "currency": 0,
            "powerup": 0,
            "cellType": 1
        },
        {
            "bombValue": 15,
            "currency": 0,
            "powerup": 0,
            "cellType": 1
        },
        {
            "bombValue": 15,
            "currency": 0,
            "powerup": 0,
            "cellType": 1
        },
        {
            "bombValue": 15,
            "currency": 0,
            "powerup": 0,
            "cellType": 1
        },
        {
            "bombValue": 15,
            "currency": 0,
            "powerup": 0,
            "cellType": 1
        },
        {
            "bombValue": 15,
            "currency": 0,
            "powerup": 0,
            "cellType": 1
        },
        {
            "bombValue": 15,
            "currency": 0,
            "powerup": 0,
            "cellType": 1
        },
        {
            "bombValue": 0,
            "currency": 0,
            "powerup": 0,
            "cellType": 0
        },
        {
            "bombValue": 0,
            "currency": 0,
            "powerup": 0,
            "cellType": 0
        },
        {
            "bombValue": 0,
            "currency": 0,
            "powerup": 0,
            "cellType": 3
        },
        {
            "bombValue": 0,
            "currency": 0,
            "powerup": 0,
            "cellType": 0
        },
        {
            "bombValue": 0,
            "currency": 0,
            "powerup": 0,
            "cellType": 3
        },
        {
            "bombValue": 0,
            "currency": 0,
            "powerup": 0,
            "cellType": 0
        },
        {
            "bombValue": 0,
            "currency": 0,
            "powerup": 0,
            "cellType": 0
        },
        {
            "bombValue": 0,
            "currency": 0,
            "powerup": 0,
            "cellType": 0
        },
        {
            "bombValue": 0,
            "currency": 0,
            "powerup": 0,
            "cellType": 0
        },
        {
            "bombValue": 0,
            "currency": 0,
            "powerup": 0,
            "cellType": 0
        },
        {
            "bombValue": 0,
            "currency": 0,
            "powerup": 0,
            "cellType": 3
        },
        {
            "bombValue": 0,
            "currency": 0,
            "powerup": 0,
            "cellType": 0
        },
        {
            "bombValue": 0,
            "currency": 0,
            "powerup": 0,
            "cellType": 0
        },
        {
            "bombValue": 0,
            "currency": 0,
            "powerup": 0,
            "cellType": 0
        },
        {
            "bombValue": 20,
            "currency": 0,
            "powerup": 0,
            "cellType": 1
        },
        {
            "bombValue": 20,
            "currency": 0,
            "powerup": 0,
            "cellType": 1
        },
        {
            "bombValue": 20,
            "currency": 0,
            "powerup": 0,
            "cellType": 1
        },
        {
            "bombValue": 20,
            "currency": 0,
            "powerup": 0,
            "cellType": 1
        },
        {
            "bombValue": 20,
            "currency": 0,
            "powerup": 0,
            "cellType": 1
        },
        {
            "bombValue": 20,
            "currency": 0,
            "powerup": 0,
            "cellType": 1
        },
        {
            "bombValue": 10,
            "currency": 0,
            "powerup": 0,
            "cellType": 7
        },
        {
            "bombValue": 0,
            "currency": 0,
            "powerup": 0,
            "cellType": 7
        },
        {
            "bombValue": 0,
            "currency": 0,
            "powerup": 0,
            "cellType": 4
        },
        {
            "bombValue": 0,
            "currency": 0,
            "powerup": 0,
            "cellType": 4
        },
        {
            "bombValue": 0,
            "currency": 0,
            "powerup": 0,
            "cellType": 4
        },
        {
            "bombValue": 0,
            "currency": 0,
            "powerup": 0,
            "cellType": 4
        },
        {
            "bombValue": 0,
            "currency": 0,
            "powerup": 0,
            "cellType": 4
        },
        {
            "bombValue": 1,
            "currency": 0,
            "powerup": 0,
            "cellType": 5
        },
        {
            "bombValue": 25,
            "currency": 0,
            "powerup": 0,
            "cellType": 1
        },
        {
            "bombValue": 25,
            "currency": 0,
            "powerup": 0,
            "cellType": 1
        },
        {
            "bombValue": 25,
            "currency": 0,
            "powerup": 0,
            "cellType": 1
        },
        {
            "bombValue": 25,
            "currency": 0,
            "powerup": 0,
            "cellType": 1
        },
        {
            "bombValue": 25,
            "currency": 0,
            "powerup": 0,
            "cellType": 1
        },
        {
            "bombValue": 25,
            "currency": 0,
            "powerup": 0,
            "cellType": 1
        },
        {
            "bombValue": 0,
            "currency": 0,
            "powerup": 0,
            "cellType": 3
        },
        {
            "bombValue": 1,
            "currency": 0,
            "powerup": 0,
            "cellType": 5
        },
        {
            "bombValue": 0,
            "currency": 0,
            "powerup": 1,
            "cellType": 2
        },
        {
            "bombValue": 0,
            "currency": 0,
            "powerup": 0,
            "cellType": 4
        },
        {
            "bombValue": 0,
            "currency": 0,
            "powerup": 0,
            "cellType": 4
        },
        {
            "bombValue": 0,
            "currency": 0,
            "powerup": 0,
            "cellType": 4
        },
        {
            "bombValue": 0,
            "currency": 0,
            "powerup": 0,
            "cellType": 4
        },
        {
            "bombValue": 0,
            "currency": 0,
            "powerup": 0,
            "cellType": 3
        },
        {
            "bombValue": 30,
            "currency": 0,
            "powerup": 0,
            "cellType": 1
        },
        {
            "bombValue": 30,
            "currency": 0,
            "powerup": 0,
            "cellType": 1
        },
        {
            "bombValue": 30,
            "currency": 0,
            "powerup": 0,
            "cellType": 1
        },
        {
            "bombValue": 30,
            "currency": 0,
            "powerup": 0,
            "cellType": 1
        },
        {
            "bombValue": 30,
            "currency": 0,
            "powerup": 0,
            "cellType": 1
        },
        {
            "bombValue": 30,
            "currency": 0,
            "powerup": 0,
            "cellType": 1
        },
        {
            "bombValue": 30,
            "currency": 0,
            "powerup": 0,
            "cellType": 1
        },
        {
            "bombValue": 0,
            "currency": 0,
            "powerup": 0,
            "cellType": 0
        },
        {
            "bombValue": 0,
            "currency": 0,
            "powerup": 0,
            "cellType": 0
        },
        {
            "bombValue": 0,
            "currency": 0,
            "powerup": 0,
            "cellType": 0
        },
        {
            "bombValue": 0,
            "currency": 0,
            "powerup": 0,
            "cellType": 0
        },
        {
            "bombValue": 0,
            "currency": 0,
            "powerup": 0,
            "cellType": 0
        },
        {
            "bombValue": 0,
            "currency": 0,
            "powerup": 0,
            "cellType": 0
        },
        {
            "bombValue": 0,
            "currency": 0,
            "powerup": 0,
            "cellType": 0
        },
        {
            "bombValue": 0,
            "currency": 0,
            "powerup": 0,
            "cellType": 0
        },
        {
            "bombValue": 0,
            "currency": 0,
            "powerup": 0,
            "cellType": 0
        },
        {
            "bombValue": 0,
            "currency": 0,
            "powerup": 0,
            "cellType": 0
        },
        {
            "bombValue": 0,
            "currency": 0,
            "powerup": 0,
            "cellType": 0
        },
        {
            "bombValue": 0,
            "currency": 0,
            "powerup": 0,
            "cellType": 0
        },
        {
            "bombValue": 0,
            "currency": 0,
            "powerup": 0,
            "cellType": 0
        },
        {
            "bombValue": 0,
            "currency": 0,
            "powerup": 0,
            "cellType": 0
        },
        {
            "bombValue": 0,
            "currency": 0,
            "powerup": 0,
            "cellType": 0
        },
        {
            "bombValue": 0,
            "currency": 0,
            "powerup": 0,
            "cellType": 0
        },
        {
            "bombValue": 0,
            "currency": 0,
            "powerup": 0,
            "cellType": 0
        },
        {
            "bombValue": 1,
            "currency": 0,
            "powerup": 0,
            "cellType": 5
        },
        {
            "bombValue": 0,
            "currency": 0,
            "powerup": 0,
            "cellType": 0
        },
        {
            "bombValue": 0,
            "currency": 0,
            "powerup": 0,
            "cellType": 0
        },
        {
            "bombValue": 0,
            "currency": 0,
            "powerup": 0,
            "cellType": 0
        },
        {
            "bombValue": 0,
            "currency": 0,
            "powerup": 0,
            "cellType": 0
        },
        {
            "bombValue": 0,
            "currency": 0,
            "powerup": 0,
            "cellType": 0
        },
        {
            "bombValue": 0,
            "currency": 0,
            "powerup": 0,
            "cellType": 0
        },
        {
            "bombValue": 0,
            "currency": 0,
            "powerup": 0,
            "cellType": 0
        },
        {
            "bombValue": 0,
            "currency": 0,
            "powerup": 0,
            "cellType": 0
        },
        {
            "bombValue": 0,
            "currency": 0,
            "powerup": 0,
            "cellType": 0
        },
        {
            "bombValue": 0,
            "currency": 0,
            "powerup": 0,
            "cellType": 0
        },
        {
            "bombValue": 0,
            "currency": 0,
            "powerup": 0,
            "cellType": 0
        },
        {
            "bombValue": 0,
            "currency": 0,
            "powerup": 0,
            "cellType": 0
        },
        {
            "bombValue": 0,
            "currency": 0,
            "powerup": 0,
            "cellType": 0
        },
        {
            "bombValue": 0,
            "currency": 0,
            "powerup": 0,
            "cellType": 0
        },
        {
            "bombValue": 0,
            "currency": 0,
            "powerup": 0,
            "cellType": 0
        },
        {
            "bombValue": 0,
            "currency": 0,
            "powerup": 0,
            "cellType": 0
        },
        {
            "bombValue": 0,
            "currency": 0,
            "powerup": 0,
            "cellType": 0
        },
        {
            "bombValue": 0,
            "currency": 0,
            "powerup": 0,
            "cellType": 0
        },
        {
            "bombValue": 0,
            "currency": 0,
            "powerup": 0,
            "cellType": 0
        },
        {
            "bombValue": 0,
            "currency": 0,
            "powerup": 0,
            "cellType": 0
        },
        {
            "bombValue": 0,
            "currency": 0,
            "powerup": 0,
            "cellType": 0
        },
        {
            "bombValue": 0,
            "currency": 0,
            "powerup": 0,
            "cellType": 0
        },
        {
            "bombValue": 0,
            "currency": 0,
            "powerup": 0,
            "cellType": 0
        },
        {
            "bombValue": 0,
            "currency": 0,
            "powerup": 0,
            "cellType": 0
        },
        {
            "bombValue": 0,
            "currency": 0,
            "powerup": 0,
            "cellType": 0
        },
        {
            "bombValue": 0,
            "currency": 0,
            "powerup": 0,
            "cellType": 0
        },
        {
            "bombValue": 0,
            "currency": 0,
            "powerup": 0,
            "cellType": 0
        },
        {
            "bombValue": 0,
            "currency": 0,
            "powerup": 0,
            "cellType": 0
        },
        {
            "bombValue": 0,
            "currency": 0,
            "powerup": 0,
            "cellType": 0
        },
        {
            "bombValue": 0,
            "currency": 0,
            "powerup": 0,
            "cellType": 0
        },
        {
            "bombValue": 0,
            "currency": 0,
            "powerup": 0,
            "cellType": 0
        },
        {
            "bombValue": 0,
            "currency": 0,
            "powerup": 0,
            "cellType": 0
        },
        {
            "bombValue": 0,
            "currency": 0,
            "powerup": 0,
            "cellType": 0
        },
        {
            "bombValue": 0,
            "currency": 0,
            "powerup": 0,
            "cellType": 0
        },
        {
            "bombValue": 0,
            "currency": 0,
            "powerup": 0,
            "cellType": 0
        },
        {
            "bombValue": 0,
            "currency": 0,
            "powerup": 0,
            "cellType": 0
        },
        {
            "bombValue": 0,
            "currency": 0,
            "powerup": 0,
            "cellType": 0
        },
        {
            "bombValue": 0,
            "currency": 0,
            "powerup": 0,
            "cellType": 0
        },
        {
            "bombValue": 0,
            "currency": 0,
            "powerup": 0,
            "cellType": 0
        },
        {
            "bombValue": 0,
            "currency": 0,
            "powerup": 0,
            "cellType": 0
        },
        {
            "bombValue": 0,
            "currency": 0,
            "powerup": 0,
            "cellType": 0
        },
        {
            "bombValue": 0,
            "currency": 0,
            "powerup": 0,
            "cellType": 0
        },
        {
            "bombValue": 0,
            "currency": 0,
            "powerup": 0,
            "cellType": 0
        },
        {
            "bombValue": 0,
            "currency": 0,
            "powerup": 0,
            "cellType": 0
        },
        {
            "bombValue": 0,
            "currency": 0,
            "powerup": 0,
            "cellType": 0
        },
        {
            "bombValue": 0,
            "currency": 0,
            "powerup": 0,
            "cellType": 0
        },
        {
            "bombValue": 0,
            "currency": 0,
            "powerup": 0,
            "cellType": 0
        },
        {
            "bombValue": 0,
            "currency": 0,
            "powerup": 0,
            "cellType": 0
        },
        {
            "bombValue": 0,
            "currency": 0,
            "powerup": 0,
            "cellType": 0
        },
        {
            "bombValue": 0,
            "currency": 0,
            "powerup": 0,
            "cellType": 0
        },
        {
            "bombValue": 0,
            "currency": 0,
            "powerup": 0,
            "cellType": 0
        },
        {
            "bombValue": 0,
            "currency": 0,
            "powerup": 0,
            "cellType": 0
        },
        {
            "bombValue": 0,
            "currency": 0,
            "powerup": 0,
            "cellType": 0
        },
        {
            "bombValue": 0,
            "currency": 0,
            "powerup": 0,
            "cellType": 0
        },
        {
            "bombValue": 0,
            "currency": 0,
            "powerup": 0,
            "cellType": 0
        },
        {
            "bombValue": 0,
            "currency": 0,
            "powerup": 0,
            "cellType": 0
        },
        {
            "bombValue": 0,
            "currency": 0,
            "powerup": 0,
            "cellType": 0
        },
        {
            "bombValue": 0,
            "currency": 0,
            "powerup": 0,
            "cellType": 0
        },
        {
            "bombValue": 0,
            "currency": 0,
            "powerup": 0,
            "cellType": 0
        },
        {
            "bombValue": 0,
            "currency": 0,
            "powerup": 0,
            "cellType": 0
        },
        {
            "bombValue": 0,
            "currency": 0,
            "powerup": 0,
            "cellType": 0
        },
        {
            "bombValue": 0,
            "currency": 0,
            "powerup": 0,
            "cellType": 0
        },
        {
            "bombValue": 0,
            "currency": 0,
            "powerup": 0,
            "cellType": 0
        },
        {
            "bombValue": 0,
            "currency": 0,
            "powerup": 0,
            "cellType": 0
        },
        {
            "bombValue": 0,
            "currency": 0,
            "powerup": 0,
            "cellType": 0
        },
        {
            "bombValue": 0,
            "currency": 0,
            "powerup": 0,
            "cellType": 0
        },
        {
            "bombValue": 0,
            "currency": 0,
            "powerup": 0,
            "cellType": 0
        },
        {
            "bombValue": 0,
            "currency": 0,
            "powerup": 0,
            "cellType": 0
        },
        {
            "bombValue": 0,
            "currency": 0,
            "powerup": 0,
            "cellType": 0
        },
        {
            "bombValue": 0,
            "currency": 0,
            "powerup": 0,
            "cellType": 0
        },
        {
            "bombValue": 0,
            "currency": 0,
            "powerup": 0,
            "cellType": 0
        },
        {
            "bombValue": 0,
            "currency": 0,
            "powerup": 0,
            "cellType": 0
        },
        {
            "bombValue": 0,
            "currency": 0,
            "powerup": 0,
            "cellType": 0
        },
        {
            "bombValue": 0,
            "currency": 0,
            "powerup": 0,
            "cellType": 0
        },
        {
            "bombValue": 0,
            "currency": 0,
            "powerup": 0,
            "cellType": 0
        },
        {
            "bombValue": 0,
            "currency": 0,
            "powerup": 0,
            "cellType": 0
        },
        {
            "bombValue": 0,
            "currency": 0,
            "powerup": 0,
            "cellType": 0
        },
        {
            "bombValue": 0,
            "currency": 0,
            "powerup": 0,
            "cellType": 0
        },
        {
            "bombValue": 0,
            "currency": 0,
            "powerup": 0,
            "cellType": 0
        },
        {
            "bombValue": 0,
            "currency": 0,
            "powerup": 0,
            "cellType": 0
        },
        {
            "bombValue": 0,
            "currency": 0,
            "powerup": 0,
            "cellType": 0
        },
        {
            "bombValue": 0,
            "currency": 0,
            "powerup": 0,
            "cellType": 0
        },
        {
            "bombValue": 0,
            "currency": 0,
            "powerup": 0,
            "cellType": 0
        },
        {
            "bombValue": 0,
            "currency": 0,
            "powerup": 0,
            "cellType": 0
        },
        {
            "bombValue": 0,
            "currency": 0,
            "powerup": 0,
            "cellType": 0
        },
        {
            "bombValue": 0,
            "currency": 0,
            "powerup": 0,
            "cellType": 0
        },
        {
            "bombValue": 0,
            "currency": 0,
            "powerup": 0,
            "cellType": 0
        },
        {
            "bombValue": 0,
            "currency": 0,
            "powerup": 0,
            "cellType": 0
        },
        {
            "bombValue": 0,
            "currency": 0,
            "powerup": 0,
            "cellType": 0
        },
        {
            "bombValue": 0,
            "currency": 0,
            "powerup": 0,
            "cellType": 0
        },
        {
            "bombValue": 0,
            "currency": 0,
            "powerup": 0,
            "cellType": 0
        },
        {
            "bombValue": 0,
            "currency": 0,
            "powerup": 0,
            "cellType": 0
        },
        {
            "bombValue": 0,
            "currency": 0,
            "powerup": 0,
            "cellType": 0
        },
        {
            "bombValue": 0,
            "currency": 0,
            "powerup": 0,
            "cellType": 0
        },
        {
            "bombValue": 0,
            "currency": 0,
            "powerup": 0,
            "cellType": 0
        },
        {
            "bombValue": 0,
            "currency": 0,
            "powerup": 0,
            "cellType": 0
        },
        {
            "bombValue": 0,
            "currency": 0,
            "powerup": 0,
            "cellType": 0
        },
        {
            "bombValue": 0,
            "currency": 0,
            "powerup": 0,
            "cellType": 0
        },
        {
            "bombValue": 0,
            "currency": 0,
            "powerup": 0,
            "cellType": 0
        },
        {
            "bombValue": 0,
            "currency": 0,
            "powerup": 0,
            "cellType": 0
        },
        {
            "bombValue": 0,
            "currency": 0,
            "powerup": 0,
            "cellType": 0
        },
        {
            "bombValue": 0,
            "currency": 0,
            "powerup": 0,
            "cellType": 0
        },
        {
            "bombValue": 0,
            "currency": 0,
            "powerup": 0,
            "cellType": 0
        },
        {
            "bombValue": 0,
            "currency": 0,
            "powerup": 0,
            "cellType": 0
        },
        {
            "bombValue": 0,
            "currency": 0,
            "powerup": 0,
            "cellType": 0
        },
        {
            "bombValue": 0,
            "currency": 0,
            "powerup": 0,
            "cellType": 0
        },
        {
            "bombValue": 0,
            "currency": 0,
            "powerup": 0,
            "cellType": 0
        },
        {
            "bombValue": 0,
            "currency": 0,
            "powerup": 0,
            "cellType": 0
        },
        {
            "bombValue": 0,
            "currency": 0,
            "powerup": 0,
            "cellType": 0
        },
        {
            "bombValue": 0,
            "currency": 0,
            "powerup": 0,
            "cellType": 0
        },
        {
            "bombValue": 0,
            "currency": 0,
            "powerup": 0,
            "cellType": 0
        },
        {
            "bombValue": 0,
            "currency": 0,
            "powerup": 0,
            "cellType": 0
        },
        {
            "bombValue": 0,
            "currency": 0,
            "powerup": 0,
            "cellType": 0
        },
        {
            "bombValue": 0,
            "currency": 0,
            "powerup": 0,
            "cellType": 0
        },
        {
            "bombValue": 0,
            "currency": 0,
            "powerup": 0,
            "cellType": 0
        },
        {
            "bombValue": 0,
            "currency": 0,
            "powerup": 0,
            "cellType": 0
        },
        {
            "bombValue": 0,
            "currency": 0,
            "powerup": 0,
            "cellType": 0
        },
        {
            "bombValue": 0,
            "currency": 0,
            "powerup": 0,
            "cellType": 0
        },
        {
            "bombValue": 0,
            "currency": 0,
            "powerup": 0,
            "cellType": 0
        },
        {
            "bombValue": 0,
            "currency": 0,
            "powerup": 0,
            "cellType": 0
        },
        {
            "bombValue": 0,
            "currency": 0,
            "powerup": 0,
            "cellType": 0
        },
        {
            "bombValue": 0,
            "currency": 0,
            "powerup": 0,
            "cellType": 0
        },
        {
            "bombValue": 0,
            "currency": 0,
            "powerup": 0,
            "cellType": 0
        },
        {
            "bombValue": 0,
            "currency": 0,
            "powerup": 0,
            "cellType": 0
        },
        {
            "bombValue": 0,
            "currency": 0,
            "powerup": 0,
            "cellType": 0
        },
        {
            "bombValue": 0,
            "currency": 0,
            "powerup": 0,
            "cellType": 0
        },
        {
            "bombValue": 0,
            "currency": 0,
            "powerup": 0,
            "cellType": 0
        },
        {
            "bombValue": 0,
            "currency": 0,
            "powerup": 0,
            "cellType": 0
        },
        {
            "bombValue": 0,
            "currency": 0,
            "powerup": 0,
            "cellType": 0
        },
        {
            "bombValue": 0,
            "currency": 0,
            "powerup": 0,
            "cellType": 0
        },
        {
            "bombValue": 0,
            "currency": 0,
            "powerup": 0,
            "cellType": 0
        },
        {
            "bombValue": 0,
            "currency": 0,
            "powerup": 0,
            "cellType": 0
        },
        {
            "bombValue": 0,
            "currency": 0,
            "powerup": 0,
            "cellType": 0
        },
        {
            "bombValue": 0,
            "currency": 0,
            "powerup": 0,
            "cellType": 0
        },
        {
            "bombValue": 0,
            "currency": 0,
            "powerup": 0,
            "cellType": 0
        },
        {
            "bombValue": 0,
            "currency": 0,
            "powerup": 0,
            "cellType": 0
        }
    ]
}