{
    "Items": [
        {
            "bombValue": 0,
            "currency": 0,
            "powerup": 0,
            "cellType": 0
        },
        {
            "bombValue": 0,
            "currency": 0,
            "powerup": 0,
            "cellType": 0
        },
        {
            "bombValue": 0,
            "currency": 0,
            "powerup": 0,
            "cellType": 0
        },
        {
            "bombValue": 0,
            "currency": 0,
            "powerup": 0,
            "cellType": 0
        },
        {
            "bombValue": 0,
            "currency": 0,
            "powerup": 0,
            "cellType": 0
        },
        {
            "bombValue": 0,
            "currency": 0,
            "powerup": 0,
            "cellType": 0
        },
        {
            "bombValue": 0,
            "currency": 0,
            "powerup": 0,
            "cellType": 0
        },
        {
            "bombValue": 0,
            "currency": 0,
            "powerup": 0,
            "cellType": 0
        },
        {
            "bombValue": 0,
            "currency": 0,
            "powerup": 0,
            "cellType": 0
        },
        {
            "bombValue": 0,
            "currency": 0,
            "powerup": 0,
            "cellType": 0
        },
        {
            "bombValue": 0,
            "currency": 0,
            "powerup": 0,
            "cellType": 0
        },
        {
            "bombValue": 0,
            "currency": 0,
            "powerup": 0,
            "cellType": 0
        },
        {
            "bombValue": 0,
            "currency": 0,
            "powerup": 0,
            "cellType": 0
        },
        {
            "bombValue": 0,
            "currency": 0,
            "powerup": 0,
            "cellType": 0
        },
        {
            "bombValue": 0,
            "currency": 0,
            "powerup": 0,
            "cellType": 0
        },
        {
            "bombValue": 0,
            "currency": 0,
            "powerup": 0,
            "cellType": 0
        },
        {
            "bombValue": 0,
            "currency": 0,
            "powerup": 0,
            "cellType": 0
        },
        {
            "bombValue": 0,
            "currency": 0,
            "powerup": 0,
            "cellType": 0
        },
        {
            "bombValue": 0,
            "currency": 0,
            "powerup": 0,
            "cellType": 0
        },
        {
            "bombValue": 0,
            "currency": 0,
            "powerup": 0,
            "cellType": 0
        },
        {
            "bombValue": 0,
            "currency": 0,
            "powerup": 0,
            "cellType": 0
        },
        {
            "bombValue": 0,
            "currency": 0,
            "powerup": 0,
            "cellType": 0
        },
        {
            "bombValue": 0,
            "currency": 0,
            "powerup": 0,
            "cellType": 0
        },
        {
            "bombValue": 0,
            "currency": 0,
            "powerup": 0,
            "cellType": 0
        },
        {
            "bombValue": 0,
            "currency": 0,
            "powerup": 0,
            "cellType": 0
        },
        {
            "bombValue": 0,
            "currency": 0,
            "powerup": 0,
            "cellType": 0
        },
        {
            "bombValue": 0,
            "currency": 0,
            "powerup": 0,
            "cellType": 0
        },
        {
            "bombValue": 0,
            "currency": 0,
            "powerup": 0,
            "cellType": 0
        },
        {
            "bombValue": 0,
            "currency": 0,
            "powerup": 0,
            "cellType": 0
        },
        {
            "bombValue": 0,
            "currency": 0,
            "powerup": 0,
            "cellType": 0
        },
        {
            "bombValue": 0,
            "currency": 0,
            "powerup": 0,
            "cellType": 0
        },
        {
            "bombValue": 0,
            "currency": 0,
            "powerup": 0,
            "cellType": 0
        },
        {
            "bombValue": 0,
            "currency": 0,
            "powerup": 0,
            "cellType": 0
        },
        {
            "bombValue": 0,
            "currency": 0,
            "powerup": 0,
            "cellType": 0
        },
        {
            "bombValue": 0,
            "currency": 0,
            "powerup": 0,
            "cellType": 0
        },
        {
            "bombValue": 0,
            "currency": 0,
            "powerup": 0,
            "cellType": 0
        },
        {
            "bombValue": 0,
            "currency": 0,
            "powerup": 0,
            "cellType": 0
        },
        {
            "bombValue": 0,
            "currency": 0,
            "powerup": 0,
            "cellType": 0
        },
        {
            "bombValue": 0,
            "currency": 0,
            "powerup": 0,
            "cellType": 0
        },
        {
            "bombValue": 0,
            "currency": 0,
            "powerup": 0,
            "cellType": 0
        },
        {
            "bombValue": 0,
            "currency": 0,
            "powerup": 0,
            "cellType": 0
        },
        {
            "bombValue": 0,
            "currency": 0,
            "powerup": 0,
            "cellType": 0
        },
        {
            "bombValue": 0,
            "currency": 0,
            "powerup": 0,
            "cellType": 0
        },
        {
            "bombValue": 0,
            "currency": 0,
            "powerup": 0,
            "cellType": 0
        },
        {
            "bombValue": 2,
            "currency": 0,
            "powerup": 0,
            "cellType": 1
        },
        {
            "bombValue": 0,
            "currency": 0,
            "powerup": 0,
            "cellType": 4
        },
        {
            "bombValue": 2,
            "currency": 0,
            "powerup": 0,
            "cellType": 1
        },
        {
            "bombValue": 0,
            "currency": 0,
            "powerup": 0,
            "cellType": 0
        },
        {
            "bombValue": 0,
            "currency": 0,
            "powerup": 0,
            "cellType": 0
        },
        {
            "bombValue": 0,
            "currency": 0,
            "powerup": 0,
            "cellType": 0
        },
        {
            "bombValue": 0,
            "currency": 0,
            "powerup": 0,
            "cellType": 0
        },
        {
            "bombValue": 2,
            "currency": 0,
            "powerup": 0,
            "cellType": 1
        },
        {
            "bombValue": 0,
            "currency": 0,
            "powerup": 0,
            "cellType": 0
        },
        {
            "bombValue": 2,
            "currency": 0,
            "powerup": 0,
            "cellType": 1
        },
        {
            "bombValue": 0,
            "currency": 0,
            "powerup": 0,
            "cellType": 0
        },
        {
            "bombValue": 0,
            "currency": 0,
            "powerup": 0,
            "cellType": 0
        },
        {
            "bombValue": 3,
            "currency": 0,
            "powerup": 0,
            "cellType": 1
        },
        {
            "bombValue": 1,
            "currency": 0,
            "powerup": 0,
            "cellType": 1
        },
        {
            "bombValue": 3,
            "currency": 0,
            "powerup": 0,
            "cellType": 1
        },
        {
            "bombValue": 0,
            "currency": 0,
            "powerup": 0,
            "cellType": 0
        },
        {
            "bombValue": 2,
            "currency": 0,
            "powerup": 0,
            "cellType": 1
        },
        {
            "bombValue": 0,
            "currency": 0,
            "powerup": 0,
            "cellType": 4
        },
        {
            "bombValue": 2,
            "currency": 0,
            "powerup": 0,
            "cellType": 1
        },
        {
            "bombValue": 3,
            "currency": 0,
            "powerup": 0,
            "cellType": 1
        },
        {
            "bombValue": 0,
            "currency": 0,
            "powerup": 0,
            "cellType": 4
        },
        {
            "bombValue": 3,
            "currency": 0,
            "powerup": 0,
            "cellType": 1
        },
        {
            "bombValue": 0,
            "currency": 0,
            "powerup": 0,
            "cellType": 0
        },
        {
            "bombValue": 2,
            "currency": 0,
            "powerup": 0,
            "cellType": 1
        },
        {
            "bombValue": 0,
            "currency": 0,
            "powerup": 4,
            "cellType": 2
        },
        {
            "bombValue": 2,
            "currency": 0,
            "powerup": 0,
            "cellType": 1
        },
        {
            "bombValue": 4,
            "currency": 0,
            "powerup": 0,
            "cellType": 1
        },
        {
            "bombValue": 0,
            "currency": 0,
            "powerup": 0,
            "cellType": 4
        },
        {
            "bombValue": 4,
            "currency": 0,
            "powerup": 0,
            "cellType": 1
        },
        {
            "bombValue": 0,
            "currency": 0,
            "powerup": 0,
            "cellType": 0
        },
        {
            "bombValue": 2,
            "currency": 0,
            "powerup": 0,
            "cellType": 1
        },
        {
            "bombValue": 0,
            "currency": 0,
            "powerup": 0,
            "cellType": 3
        },
        {
            "bombValue": 2,
            "currency": 0,
            "powerup": 0,
            "cellType": 1
        },
        {
            "bombValue": 0,
            "currency": 0,
            "powerup": 0,
            "cellType": 0
        },
        {
            "bombValue": 0,
            "currency": 0,
            "powerup": 0,
            "cellType": 0
        },
        {
            "bombValue": 0,
            "currency": 0,
            "powerup": 0,
            "cellType": 0
        },
        {
            "bombValue": 3,
            "currency": 0,
            "powerup": 0,
            "cellType": 1
        },
        {
            "bombValue": 1,
            "currency": 0,
            "powerup": 0,
            "cellType": 1
        },
        {
            "bombValue": 0,
            "currency": 0,
            "powerup": 0,
            "cellType": 0
        },
        {
            "bombValue": 0,
            "currency": 0,
            "powerup": 0,
            "cellType": 0
        },
        {
            "bombValue": 3,
            "currency": 0,
            "powerup": 0,
            "cellType": 1
        },
        {
            "bombValue": 0,
            "currency": 0,
            "powerup": 0,
            "cellType": 0
        },
        {
            "bombValue": 4,
            "currency": 0,
            "powerup": 0,
            "cellType": 1
        },
        {
            "bombValue": 0,
            "currency": 0,
            "powerup": 0,
            "cellType": 0
        },
        {
            "bombValue": 0,
            "currency": 0,
            "powerup": 0,
            "cellType": 0
        },
        {
            "bombValue": 4,
            "currency": 0,
            "powerup": 0,
            "cellType": 1
        },
        {
            "bombValue": 0,
            "currency": 0,
            "powerup": 0,
            "cellType": 0
        },
        {
            "bombValue": 0,
            "currency": 0,
            "powerup": 0,
            "cellType": 0
        },
        {
            "bombValue": 4,
            "currency": 0,
            "powerup": 0,
            "cellType": 1
        },
        {
            "bombValue": 0,
            "currency": 0,
            "powerup": 0,
            "cellType": 0
        },
        {
            "bombValue": 0,
            "currency": 0,
            "powerup": 0,
            "cellType": 4
        },
        {
            "bombValue": 0,
            "currency": 0,
            "powerup": 0,
            "cellType": 0
        },
        {
            "bombValue": 4,
            "currency": 0,
            "powerup": 0,
            "cellType": 1
        },
        {
            "bombValue": 0,
            "currency": 0,
            "powerup": 0,
            "cellType": 0
        },
        {
            "bombValue": 0,
            "currency": 0,
            "powerup": 0,
            "cellType": 0
        },
        {
            "bombValue": 0,
            "currency": 0,
            "powerup": 0,
            "cellType": 0
        },
        {
            "bombValue": 4,
            "currency": 0,
            "powerup": 0,
            "cellType": 1
        },
        {
            "bombValue": 0,
            "currency": 0,
            "powerup": 0,
            "cellType": 0
        },
        {
            "bombValue": 4,
            "currency": 0,
            "powerup": 0,
            "cellType": 1
        },
        {
            "bombValue": 0,
            "currency": 0,
            "powerup": 0,
            "cellType": 0
        },
        {
            "bombValue": 3,
            "currency": 0,
            "powerup": 0,
            "cellType": 1
        },
        {
            "bombValue": 0,
            "currency": 0,
            "powerup": 0,
            "cellType": 0
        },
        {
            "bombValue": 0,
            "currency": 0,
            "powerup": 0,
            "cellType": 0
        },
        {
            "bombValue": 0,
            "currency": 0,
            "powerup": 0,
            "cellType": 0
        },
        {
            "bombValue": 6,
            "currency": 0,
            "powerup": 0,
            "cellType": 1
        },
        {
            "bombValue": 0,
            "currency": 0,
            "powerup": 0,
            "cellType": 0
        },
        {
            "bombValue": 0,
            "currency": 0,
            "powerup": 0,
            "cellType": 0
        },
        {
            "bombValue": 0,
            "currency": 0,
            "powerup": 0,
            "cellType": 0
        },
        {
            "bombValue": 4,
            "currency": 0,
            "powerup": 0,
            "cellType": 1
        },
        {
            "bombValue": 0,
            "currency": 0,
            "powerup": 0,
            "cellType": 0
        },
        {
            "bombValue": 4,
            "currency": 0,
            "powerup": 0,
            "cellType": 1
        },
        {
            "bombValue": 0,
            "currency": 0,
            "powerup": 0,
            "cellType": 0
        },
        {
            "bombValue": 4,
            "currency": 0,
            "powerup": 0,
            "cellType": 1
        },
        {
            "bombValue": 0,
            "currency": 0,
            "powerup": 0,
            "cellType": 0
        },
        {
            "bombValue": 4,
            "currency": 0,
            "powerup": 0,
            "cellType": 1
        },
        {
            "bombValue": 1,
            "currency": 0,
            "powerup": 0,
            "cellType": 1
        },
        {
            "bombValue": 0,
            "currency": 0,
            "powerup": 0,
            "cellType": 0
        },
        {
            "bombValue": 0,
            "currency": 0,
            "powerup": 0,
            "cellType": 0
        },
        {
            "bombValue": 0,
            "currency": 0,
            "powerup": 0,
            "cellType": 3
        },
        {
            "bombValue": 6,
            "currency": 0,
            "powerup": 0,
            "cellType": 1
        },
        {
            "bombValue": 0,
            "currency": 0,
            "powerup": 0,
            "cellType": 4
        },
        {
            "bombValue": 4,
            "currency": 0,
            "powerup": 0,
            "cellType": 1
        },
        {
            "bombValue": 0,
            "currency": 0,
            "powerup": 0,
            "cellType": 0
        },
        {
            "bombValue": 1,
            "currency": 0,
            "powerup": 0,
            "cellType": 1
        },
        {
            "bombValue": 0,
            "currency": 0,
            "powerup": 0,
            "cellType": 0
        },
        {
            "bombValue": 7,
            "currency": 0,
            "powerup": 0,
            "cellType": 1
        },
        {
            "bombValue": 0,
            "currency": 0,
            "powerup": 0,
            "cellType": 0
        },
        {
            "bombValue": 6,
            "currency": 0,
            "powerup": 0,
            "cellType": 1
        },
        {
            "bombValue": 0,
            "currency": 0,
            "powerup": 0,
            "cellType": 0
        },
        {
            "bombValue": 5,
            "currency": 0,
            "powerup": 0,
            "cellType": 1
        },
        {
            "bombValue": 0,
            "currency": 0,
            "powerup": 0,
            "cellType": 0
        },
        {
            "bombValue": 0,
            "currency": 0,
            "powerup": 0,
            "cellType": 0
        },
        {
            "bombValue": 0,
            "currency": 0,
            "powerup": 0,
            "cellType": 0
        },
        {
            "bombValue": 0,
            "currency": 0,
            "powerup": 0,
            "cellType": 0
        },
        {
            "bombValue": 0,
            "currency": 0,
            "powerup": 0,
            "cellType": 0
        },
        {
            "bombValue": 5,
            "currency": 0,
            "powerup": 0,
            "cellType": 1
        },
        {
            "bombValue": 5,
            "currency": 0,
            "powerup": 0,
            "cellType": 1
        },
        {
            "bombValue": 0,
            "currency": 0,
            "powerup": 2,
            "cellType": 2
        },
        {
            "bombValue": 0,
            "currency": 0,
            "powerup": 0,
            "cellType": 0
        },
        {
            "bombValue": 0,
            "currency": 0,
            "powerup": 0,
            "cellType": 0
        },
        {
            "bombValue": 0,
            "currency": 0,
            "powerup": 0,
            "cellType": 4
        },
        {
            "bombValue": 0,
            "currency": 0,
            "powerup": 0,
            "cellType": 0
        },
        {
            "bombValue": 5,
            "currency": 0,
            "powerup": 0,
            "cellType": 1
        },
        {
            "bombValue": 5,
            "currency": 0,
            "powerup": 0,
            "cellType": 1
        },
        {
            "bombValue": 0,
            "currency": 0,
            "powerup": 0,
            "cellType": 0
        },
        {
            "bombValue": 0,
            "currency": 0,
            "powerup": 0,
            "cellType": 0
        },
        {
            "bombValue": 0,
            "currency": 0,
            "powerup": 0,
            "cellType": 0
        },
        {
            "bombValue": 0,
            "currency": 0,
            "powerup": 0,
            "cellType": 0
        },
        {
            "bombValue": 0,
            "currency": 0,
            "powerup": 0,
            "cellType": 0
        },
        {
            "bombValue": 5,
            "currency": 0,
            "powerup": 0,
            "cellType": 1
        },
        {
            "bombValue": 1,
            "currency": 0,
            "powerup": 4,
            "cellType": 1
        },
        {
            "bombValue": 10,
            "currency": 0,
            "powerup": 0,
            "cellType": 0
        },
        {
            "bombValue": 10,
            "currency": 0,
            "powerup": 0,
            "cellType": 1
        },
        {
            "bombValue": 10,
            "currency": 0,
            "powerup": 0,
            "cellType": 1
        },
        {
            "bombValue": 10,
            "currency": 0,
            "powerup": 0,
            "cellType": 1
        },
        {
            "bombValue": 10,
            "currency": 0,
            "powerup": 0,
            "cellType": 1
        },
        {
            "bombValue": 10,
            "currency": 0,
            "powerup": 0,
            "cellType": 1
        },
        {
            "bombValue": 8,
            "currency": 0,
            "powerup": 0,
            "cellType": 1
        },
        {
            "bombValue": 0,
            "currency": 0,
            "powerup": 0,
            "cellType": 0
        },
        {
            "bombValue": 0,
            "currency": 0,
            "powerup": 0,
            "cellType": 0
        },
        {
            "bombValue": 0,
            "currency": 0,
            "powerup": 0,
            "cellType": 0
        },
        {
            "bombValue": 0,
            "currency": 0,
            "powerup": 0,
            "cellType": 0
        },
        {
            "bombValue": 0,
            "currency": 0,
            "powerup": 0,
            "cellType": 0
        },
        {
            "bombValue": 0,
            "currency": 0,
            "powerup": 0,
            "cellType": 4
        },
        {
            "bombValue": 0,
            "currency": 0,
            "powerup": 5,
            "cellType": 2
        },
        {
            "bombValue": 12,
            "currency": 0,
            "powerup": 0,
            "cellType": 1
        },
        {
            "bombValue": 12,
            "currency": 0,
            "powerup": 0,
            "cellType": 1
        },
        {
            "bombValue": 12,
            "currency": 0,
            "powerup": 0,
            "cellType": 1
        },
        {
            "bombValue": 12,
            "currency": 0,
            "powerup": 0,
            "cellType": 1
        },
        {
            "bombValue": 12,
            "currency": 0,
            "powerup": 0,
            "cellType": 1
        },
        {
            "bombValue": 1,
            "currency": 0,
            "powerup": 0,
            "cellType": 1
        },
        {
            "bombValue": 50,
            "currency": 0,
            "powerup": 0,
            "cellType": 1
        },
        {
            "bombValue": 0,
            "currency": 0,
            "powerup": 0,
            "cellType": 0
        },
        {
            "bombValue": 0,
            "currency": 0,
            "powerup": 0,
            "cellType": 0
        },
        {
            "bombValue": 0,
            "currency": 0,
            "powerup": 0,
            "cellType": 0
        },
        {
            "bombValue": 0,
            "currency": 0,
            "powerup": 0,
            "cellType": 0
        },
        {
            "bombValue": 0,
            "currency": 0,
            "powerup": 0,
            "cellType": 0
        },
        {
            "bombValue": 0,
            "currency": 0,
            "powerup": 0,
            "cellType": 0
        },
        {
            "bombValue": 4,
            "currency": 0,
            "powerup": 0,
            "cellType": 1
        },
        {
            "bombValue": 0,
            "currency": 0,
            "powerup": 0,
            "cellType": 0
        },
        {
            "bombValue": 13,
            "currency": 0,
            "powerup": 0,
            "cellType": 1
        },
        {
            "bombValue": 0,
            "currency": 0,
            "powerup": 0,
            "cellType": 0
        },
        {
            "bombValue": 0,
            "currency": 0,
            "powerup": 0,
            "cellType": 0
        },
        {
            "bombValue": 0,
            "currency": 0,
            "powerup": 0,
            "cellType": 0
        },
        {
            "bombValue": 0,
            "currency": 0,
            "powerup": 0,
            "cellType": 0
        },
        {
            "bombValue": 0,
            "currency": 0,
            "powerup": 0,
            "cellType": 0
        },
        {
            "bombValue": 0,
            "currency": 0,
            "powerup": 0,
            "cellType": 0
        },
        {
            "bombValue": 13,
            "currency": 0,
            "powerup": 0,
            "cellType": 1
        },
        {
            "bombValue": 0,
            "currency": 0,
            "powerup": 0,
            "cellType": 0
        },
        {
            "bombValue": 4,
            "currency": 0,
            "powerup": 0,
            "cellType": 1
        },
        {
            "bombValue": 0,
            "currency": 0,
            "powerup": 0,
            "cellType": 0
        },
        {
            "bombValue": 0,
            "currency": 0,
            "powerup": 0,
            "cellType": 0
        },
        {
            "bombValue": 0,
            "currency": 0,
            "powerup": 0,
            "cellType": 0
        },
        {
            "bombValue": 4,
            "currency": 0,
            "powerup": 0,
            "cellType": 1
        },
        {
            "bombValue": 13,
            "currency": 0,
            "powerup": 0,
            "cellType": 1
        },
        {
            "bombValue": 0,
            "currency": 0,
            "powerup": 0,
            "cellType": 0
        },
        {
            "bombValue": 0,
            "currency": 0,
            "powerup": 2,
            "cellType": 2
        },
        {
            "bombValue": 0,
            "currency": 0,
            "powerup": 0,
            "cellType": 0
        },
        {
            "bombValue": 0,
            "currency": 0,
            "powerup": 0,
            "cellType": 0
        },
        {
            "bombValue": 0,
            "currency": 0,
            "powerup": 0,
            "cellType": 0
        },
        {
            "bombValue": 0,
            "currency": 0,
            "powerup": 0,
            "cellType": 0
        },
        {
            "bombValue": 13,
            "currency": 0,
            "powerup": 0,
            "cellType": 1
        },
        {
            "bombValue": 0,
            "currency": 0,
            "powerup": 0,
            "cellType": 0
        },
        {
            "bombValue": 0,
            "currency": 0,
            "powerup": 0,
            "cellType": 0
        },
        {
            "bombValue": 0,
            "currency": 0,
            "powerup": 0,
            "cellType": 0
        },
        {
            "bombValue": 4,
            "currency": 0,
            "powerup": 0,
            "cellType": 1
        },
        {
            "bombValue": 4,
            "currency": 0,
            "powerup": 0,
            "cellType": 1
        },
        {
            "bombValue": 0,
            "currency": 0,
            "powerup": 0,
            "cellType": 0
        },
        {
            "bombValue": 13,
            "currency": 0,
            "powerup": 0,
            "cellType": 1
        },
        {
            "bombValue": 0,
            "currency": 0,
            "powerup": 0,
            "cellType": 0
        },
        {
            "bombValue": 0,
            "currency": 0,
            "powerup": 0,
            "cellType": 0
        },
        {
            "bombValue": 0,
            "currency": 0,
            "powerup": 0,
            "cellType": 0
        },
        {
            "bombValue": 0,
            "currency": 0,
            "powerup": 0,
            "cellType": 0
        },
        {
            "bombValue": 0,
            "currency": 0,
            "powerup": 0,
            "cellType": 0
        },
        {
            "bombValue": 0,
            "currency": 0,
            "powerup": 0,
            "cellType": 0
        },
        {
            "bombValue": 0,
            "currency": 0,
            "powerup": 0,
            "cellType": 0
        },
        {
            "bombValue": 0,
            "currency": 0,
            "powerup": 0,
            "cellType": 4
        },
        {
            "bombValue": 12,
            "currency": 0,
            "powerup": 0,
            "cellType": 1
        },
        {
            "bombValue": 0,
            "currency": 0,
            "powerup": 0,
            "cellType": 0
        },
        {
            "bombValue": 13,
            "currency": 0,
            "powerup": 0,
            "cellType": 1
        },
        {
            "bombValue": 0,
            "currency": 0,
            "powerup": 0,
            "cellType": 0
        },
        {
            "bombValue": 0,
            "currency": 0,
            "powerup": 0,
            "cellType": 0
        },
        {
            "bombValue": 3,
            "currency": 0,
            "powerup": 0,
            "cellType": 1
        },
        {
            "bombValue": 0,
            "currency": 0,
            "powerup": 0,
            "cellType": 0
        },
        {
            "bombValue": 0,
            "currency": 0,
            "powerup": 0,
            "cellType": 0
        },
        {
            "bombValue": 0,
            "currency": 0,
            "powerup": 0,
            "cellType": 0
        },
        {
            "bombValue": 14,
            "currency": 0,
            "powerup": 0,
            "cellType": 1
        },
        {
            "bombValue": 0,
            "currency": 0,
            "powerup": 0,
            "cellType": 0
        },
        {
            "bombValue": 0,
            "currency": 0,
            "powerup": 0,
            "cellType": 0
        },
        {
            "bombValue": 4,
            "currency": 0,
            "powerup": 0,
            "cellType": 1
        },
        {
            "bombValue": 0,
            "currency": 0,
            "powerup": 0,
            "cellType": 0
        },
        {
            "bombValue": 11,
            "currency": 0,
            "powerup": 0,
            "cellType": 1
        },
        {
            "bombValue": 0,
            "currency": 0,
            "powerup": 0,
            "cellType": 0
        },
        {
            "bombValue": 13,
            "currency": 0,
            "powerup": 0,
            "cellType": 1
        },
        {
            "bombValue": 0,
            "currency": 0,
            "powerup": 0,
            "cellType": 4
        },
        {
            "bombValue": 0,
            "currency": 0,
            "powerup": 0,
            "cellType": 0
        },
        {
            "bombValue": 6,
            "currency": 0,
            "powerup": 0,
            "cellType": 1
        },
        {
            "bombValue": 0,
            "currency": 0,
            "powerup": 0,
            "cellType": 0
        },
        {
            "bombValue": 16,
            "currency": 0,
            "powerup": 0,
            "cellType": 1
        },
        {
            "bombValue": 0,
            "currency": 0,
            "powerup": 0,
            "cellType": 0
        },
        {
            "bombValue": 0,
            "currency": 0,
            "powerup": 2,
            "cellType": 2
        },
        {
            "bombValue": 0,
            "currency": 0,
            "powerup": 0,
            "cellType": 0
        },
        {
            "bombValue": 0,
            "currency": 0,
            "powerup": 0,
            "cellType": 0
        },
        {
            "bombValue": 0,
            "currency": 0,
            "powerup": 0,
            "cellType": 0
        },
        {
            "bombValue": 0,
            "currency": 0,
            "powerup": 0,
            "cellType": 0
        },
        {
            "bombValue": 18,
            "currency": 0,
            "powerup": 0,
            "cellType": 1
        },
        {
            "bombValue": 0,
            "currency": 0,
            "powerup": 0,
            "cellType": 0
        },
        {
            "bombValue": 0,
            "currency": 0,
            "powerup": 0,
            "cellType": 4
        },
        {
            "bombValue": 12,
            "currency": 0,
            "powerup": 0,
            "cellType": 1
        },
        {
            "bombValue": 0,
            "currency": 0,
            "powerup": 0,
            "cellType": 0
        },
        {
            "bombValue": 13,
            "currency": 0,
            "powerup": 0,
            "cellType": 1
        },
        {
            "bombValue": 0,
            "currency": 0,
            "powerup": 0,
            "cellType": 0
        },
        {
            "bombValue": 0,
            "currency": 0,
            "powerup": 0,
            "cellType": 0
        },
        {
            "bombValue": 0,
            "currency": 0,
            "powerup": 0,
            "cellType": 0
        },
        {
            "bombValue": 0,
            "currency": 0,
            "powerup": 0,
            "cellType": 0
        },
        {
            "bombValue": 15,
            "currency": 0,
            "powerup": 0,
            "cellType": 1
        },
        {
            "bombValue": 0,
            "currency": 0,
            "powerup": 0,
            "cellType": 0
        },
        {
            "bombValue": 11,
            "currency": 0,
            "powerup": 0,
            "cellType": 1
        },
        {
            "bombValue": 0,
            "currency": 0,
            "powerup": 0,
            "cellType": 0
        },
        {
            "bombValue": 0,
            "currency": 0,
            "powerup": 0,
            "cellType": 0
        },
        {
            "bombValue": 0,
            "currency": 0,
            "powerup": 0,
            "cellType": 0
        },
        {
            "bombValue": 0,
            "currency": 0,
            "powerup": 0,
            "cellType": 0
        },
        {
            "bombValue": 15,
            "currency": 0,
            "powerup": 0,
            "cellType": 1
        },
        {
            "bombValue": 0,
            "currency": 0,
            "powerup": 0,
            "cellType": 4
        },
        {
            "bombValue": 12,
            "currency": 0,
            "powerup": 0,
            "cellType": 1
        },
        {
            "bombValue": 0,
            "currency": 0,
            "powerup": 0,
            "cellType": 0
        },
        {
            "bombValue": 0,
            "currency": 0,
            "powerup": 0,
            "cellType": 0
        },
        {
            "bombValue": 0,
            "currency": 0,
            "powerup": 0,
            "cellType": 0
        },
        {
            "bombValue": 0,
            "currency": 0,
            "powerup": 0,
            "cellType": 0
        },
        {
            "bombValue": 11,
            "currency": 0,
            "powerup": 0,
            "cellType": 1
        },
        {
            "bombValue": 0,
            "currency": 0,
            "powerup": 0,
            "cellType": 0
        },
        {
            "bombValue": 13,
            "currency": 0,
            "powerup": 0,
            "cellType": 1
        },
        {
            "bombValue": 0,
            "currency": 0,
            "powerup": 0,
            "cellType": 0
        },
        {
            "bombValue": 0,
            "currency": 0,
            "powerup": 0,
            "cellType": 0
        },
        {
            "bombValue": 0,
            "currency": 0,
            "powerup": 0,
            "cellType": 0
        },
        {
            "bombValue": 0,
            "currency": 0,
            "powerup": 0,
            "cellType": 3
        },
        {
            "bombValue": 1,
            "currency": 0,
            "powerup": 0,
            "cellType": 1
        },
        {
            "bombValue": 0,
            "currency": 0,
            "powerup": 0,
            "cellType": 0
        },
        {
            "bombValue": 1,
            "currency": 0,
            "powerup": 0,
            "cellType": 1
        },
        {
            "bombValue": 1,
            "currency": 0,
            "powerup": 0,
            "cellType": 1
        },
        {
            "bombValue": 0,
            "currency": 0,
            "powerup": 0,
            "cellType": 0
        },
        {
            "bombValue": 0,
            "currency": 0,
            "powerup": 0,
            "cellType": 0
        },
        {
            "bombValue": 0,
            "currency": 0,
            "powerup": 0,
            "cellType": 0
        },
        {
            "bombValue": 0,
            "currency": 0,
            "powerup": 0,
            "cellType": 0
        },
        {
            "bombValue": 0,
            "currency": 0,
            "powerup": 0,
            "cellType": 0
        },
        {
            "bombValue": 0,
            "currency": 0,
            "powerup": 0,
            "cellType": 0
        },
        {
            "bombValue": 1,
            "currency": 0,
            "powerup": 0,
            "cellType": 1
        },
        {
            "bombValue": 1,
            "currency": 0,
            "powerup": 0,
            "cellType": 1
        },
        {
            "bombValue": 1,
            "currency": 0,
            "powerup": 0,
            "cellType": 1
        },
        {
            "bombValue": 1,
            "currency": 0,
            "powerup": 0,
            "cellType": 1
        },
        {
            "bombValue": 0,
            "currency": 0,
            "powerup": 0,
            "cellType": 0
        },
        {
            "bombValue": 0,
            "currency": 0,
            "powerup": 0,
            "cellType": 0
        },
        {
            "bombValue": 0,
            "currency": 0,
            "powerup": 0,
            "cellType": 0
        },
        {
            "bombValue": 1,
            "currency": 0,
            "powerup": 0,
            "cellType": 1
        },
        {
            "bombValue": 1,
            "currency": 0,
            "powerup": 0,
            "cellType": 1
        },
        {
            "bombValue": 1,
            "currency": 0,
            "powerup": 4,
            "cellType": 1
        },
        {
            "bombValue": 1,
            "currency": 0,
            "powerup": 0,
            "cellType": 1
        },
        {
            "bombValue": 0,
            "currency": 0,
            "powerup": 0,
            "cellType": 0
        },
        {
            "bombValue": 0,
            "currency": 0,
            "powerup": 0,
            "cellType": 0
        },
        {
            "bombValue": 0,
            "currency": 0,
            "powerup": 0,
            "cellType": 0
        },
        {
            "bombValue": 1,
            "currency": 0,
            "powerup": 0,
            "cellType": 1
        },
        {
            "bombValue": 1,
            "currency": 0,
            "powerup": 0,
            "cellType": 1
        },
        {
            "bombValue": 1,
            "currency": 0,
            "powerup": 0,
            "cellType": 1
        },
        {
            "bombValue": 1,
            "currency": 0,
            "powerup": 0,
            "cellType": 1
        },
        {
            "bombValue": 0,
            "currency": 0,
            "powerup": 0,
            "cellType": 0
        },
        {
            "bombValue": 0,
            "currency": 0,
            "powerup": 0,
            "cellType": 0
        },
        {
            "bombValue": 0,
            "currency": 0,
            "powerup": 0,
            "cellType": 0
        },
        {
            "bombValue": 0,
            "currency": 0,
            "powerup": 4,
            "cellType": 2
        },
        {
            "bombValue": 2,
            "currency": 0,
            "powerup": 0,
            "cellType": 1
        },
        {
            "bombValue": 23,
            "currency": 0,
            "powerup": 0,
            "cellType": 1
        },
        {
            "bombValue": 23,
            "currency": 0,
            "powerup": 0,
            "cellType": 1
        },
        {
            "bombValue": 0,
            "currency": 0,
            "powerup": 0,
            "cellType": 0
        },
        {
            "bombValue": 0,
            "currency": 0,
            "powerup": 0,
            "cellType": 0
        },
        {
            "bombValue": 0,
            "currency": 0,
            "powerup": 5,
            "cellType": 2
        },
        {
            "bombValue": 0,
            "currency": 0,
            "powerup": 0,
            "cellType": 0
        },
        {
            "bombValue": 0,
            "currency": 0,
            "powerup": 0,
            "cellType": 0
        },
        {
            "bombValue": 0,
            "currency": 0,
            "powerup": 0,
            "cellType": 0
        },
        {
            "bombValue": 11,
            "currency": 0,
            "powerup": 0,
            "cellType": 1
        },
        {
            "bombValue": 0,
            "currency": 0,
            "powerup": 0,
            "cellType": 0
        },
        {
            "bombValue": 0,
            "currency": 0,
            "powerup": 0,
            "cellType": 0
        },
        {
            "bombValue": 0,
            "currency": 0,
            "powerup": 0,
            "cellType": 0
        },
        {
            "bombValue": 14,
            "currency": 0,
            "powerup": 0,
            "cellType": 1
        },
        {
            "bombValue": 16,
            "currency": 0,
            "powerup": 0,
            "cellType": 1
        },
        {
            "bombValue": 11,
            "currency": 0,
            "powerup": 0,
            "cellType": 1
        },
        {
            "bombValue": 0,
            "currency": 0,
            "powerup": 0,
            "cellType": 0
        },
        {
            "bombValue": 0,
            "currency": 0,
            "powerup": 0,
            "cellType": 0
        },
        {
            "bombValue": 13,
            "currency": 0,
            "powerup": 0,
            "cellType": 1
        },
        {
            "bombValue": 0,
            "currency": 0,
            "powerup": 0,
            "cellType": 0
        },
        {
            "bombValue": 12,
            "currency": 0,
            "powerup": 0,
            "cellType": 1
        },
        {
            "bombValue": 0,
            "currency": 0,
            "powerup": 0,
            "cellType": 0
        },
        {
            "bombValue": 0,
            "currency": 0,
            "powerup": 0,
            "cellType": 3
        },
        {
            "bombValue": 0,
            "currency": 0,
            "powerup": 0,
            "cellType": 0
        },
        {
            "bombValue": 1,
            "currency": 0,
            "powerup": 0,
            "cellType": 1
        },
        {
            "bombValue": 0,
            "currency": 0,
            "powerup": 0,
            "cellType": 3
        },
        {
            "bombValue": 0,
            "currency": 0,
            "powerup": 0,
            "cellType": 0
        },
        {
            "bombValue": 99,
            "currency": 0,
            "powerup": 0,
            "cellType": 1
        },
        {
            "bombValue": 0,
            "currency": 0,
            "powerup": 0,
            "cellType": 0
        },
        {
            "bombValue": 0,
            "currency": 0,
            "powerup": 0,
            "cellType": 0
        },
        {
            "bombValue": 0,
            "currency": 0,
            "powerup": 0,
            "cellType": 0
        },
        {
            "bombValue": 1,
            "currency": 0,
            "powerup": 0,
            "cellType": 1
        },
        {
            "bombValue": 1,
            "currency": 0,
            "powerup": 0,
            "cellType": 1
        },
        {
            "bombValue": 1,
            "currency": 0,
            "powerup": 0,
            "cellType": 1
        },
        {
            "bombValue": 1,
            "currency": 0,
            "powerup": 0,
            "cellType": 1
        },
        {
            "bombValue": 1,
            "currency": 0,
            "powerup": 0,
            "cellType": 1
        },
        {
            "bombValue": 1,
            "currency": 0,
            "powerup": 0,
            "cellType": 1
        },
        {
            "bombValue": 1,
            "currency": 0,
            "powerup": 0,
            "cellType": 1
        }
    ]
}